%YAML 1.1
%TAG !u! tag:unity3d.com,2011:
--- !u!114 &8972535
MonoBehaviour:
  m_ObjectHideFlags: 0
  m_CorrespondingSourceObject: {fileID: 0}
  m_PrefabInstance: {fileID: 0}
  m_PrefabAsset: {fileID: 0}
  m_GameObject: {fileID: 2921371911610995808}
  m_Enabled: 1
  m_EditorHideFlags: 0
  m_Script: {fileID: 11500000, guid: 6d70417706d7f4e4d9badb95277067b8, type: 3}
  m_Name: 
  m_EditorClassIdentifier: 
  highwayLayer: {fileID: 404257177818882594, guid: 863aa536cccff5a43add2d74aa1ec15b,
    type: 3}
--- !u!1001 &5637310255435874930
PrefabInstance:
  m_ObjectHideFlags: 0
  serializedVersion: 2
  m_Modification:
    m_TransformParent: {fileID: 0}
    m_Modifications:
    - target: {fileID: 7399822698073593362, guid: 60c2d11b1abec5e4eb42d324a0aafcd6,
        type: 3}
      propertyPath: m_Name
      value: HighwayLayerFactory
      objectReference: {fileID: 0}
    - target: {fileID: 7399822698073593364, guid: 60c2d11b1abec5e4eb42d324a0aafcd6,
        type: 3}
      propertyPath: m_LocalPosition.x
      value: 0
      objectReference: {fileID: 0}
    - target: {fileID: 7399822698073593364, guid: 60c2d11b1abec5e4eb42d324a0aafcd6,
        type: 3}
      propertyPath: m_LocalPosition.y
      value: 0
      objectReference: {fileID: 0}
    - target: {fileID: 7399822698073593364, guid: 60c2d11b1abec5e4eb42d324a0aafcd6,
        type: 3}
      propertyPath: m_LocalPosition.z
      value: 0
      objectReference: {fileID: 0}
    - target: {fileID: 7399822698073593364, guid: 60c2d11b1abec5e4eb42d324a0aafcd6,
        type: 3}
      propertyPath: m_LocalRotation.x
      value: 0
      objectReference: {fileID: 0}
    - target: {fileID: 7399822698073593364, guid: 60c2d11b1abec5e4eb42d324a0aafcd6,
        type: 3}
      propertyPath: m_LocalRotation.y
      value: 0
      objectReference: {fileID: 0}
    - target: {fileID: 7399822698073593364, guid: 60c2d11b1abec5e4eb42d324a0aafcd6,
        type: 3}
      propertyPath: m_LocalRotation.z
      value: 0
      objectReference: {fileID: 0}
    - target: {fileID: 7399822698073593364, guid: 60c2d11b1abec5e4eb42d324a0aafcd6,
        type: 3}
      propertyPath: m_LocalRotation.w
      value: 1
      objectReference: {fileID: 0}
    - target: {fileID: 7399822698073593364, guid: 60c2d11b1abec5e4eb42d324a0aafcd6,
        type: 3}
      propertyPath: m_RootOrder
      value: 0
      objectReference: {fileID: 0}
    - target: {fileID: 7399822698073593364, guid: 60c2d11b1abec5e4eb42d324a0aafcd6,
        type: 3}
      propertyPath: m_LocalEulerAnglesHint.x
      value: 0
      objectReference: {fileID: 0}
    - target: {fileID: 7399822698073593364, guid: 60c2d11b1abec5e4eb42d324a0aafcd6,
        type: 3}
      propertyPath: m_LocalEulerAnglesHint.y
      value: 0
      objectReference: {fileID: 0}
    - target: {fileID: 7399822698073593364, guid: 60c2d11b1abec5e4eb42d324a0aafcd6,
        type: 3}
      propertyPath: m_LocalEulerAnglesHint.z
      value: 0
      objectReference: {fileID: 0}
    m_RemovedComponents:
    - {fileID: 1425580254, guid: 60c2d11b1abec5e4eb42d324a0aafcd6, type: 3}
  m_SourcePrefab: {fileID: 100100000, guid: 60c2d11b1abec5e4eb42d324a0aafcd6, type: 3}
--- !u!1 &2921371911610995808 stripped
GameObject:
  m_CorrespondingSourceObject: {fileID: 7399822698073593362, guid: 60c2d11b1abec5e4eb42d324a0aafcd6,
    type: 3}
  m_PrefabInstance: {fileID: 5637310255435874930}
  m_PrefabAsset: {fileID: 0}
